…
### Assigning correct order to each month of year

``` r
all_trips_v3$month <-ordered(all_trips_v3$month, levels = c('04', '05', '06', '07', '08', '09', '10', '11', '12', '01', '02', '03'))
all_trips_v3 %>% 
  group_by(member_casual, month) %>% 
  summarize(number_of_ride = n (), .groups = 'drop') %>% 
  arrange(month)
```

    ## # A tibble: 22 × 3
    ##    member_casual month number_of_ride
    ##    <chr>         <ord>          <int>
    ##  1 casual        04             11127
    ##  2 member        04             46050
    ##  3 casual        05             38338
    ##  4 member        05             81473
    ##  5 casual        06             75219
    ##  6 member        06            141811
    ##  7 casual        08            151319
    ##  8 member        08            259497
    ##  9 casual        09            127284
    ## 10 member        09            236318
    ## # ℹ 12 more rows
…
### Arranging data by month and ride length

``` r
all_trips_v3 %>% 
  group_by(member_casual, month) %>% 
  summarize(average_ride_length = mean(ride_length), .groups= 'drop') %>% 
  arrange(month)
```

    ## # A tibble: 22 × 3
    ##    member_casual month average_ride_length
    ##    <chr>         <ord>               <dbl>
    ##  1 casual        04                   842.
    ##  2 member        04                   672.
    ##  3 casual        05                   835.
    ##  4 member        05                   703.
    ##  5 casual        06                   829.
    ##  6 member        06                   703.
    ##  7 casual        08                   782.
    ##  8 member        08                   651.
    ##  9 casual        09                   753.
    ## 10 member        09                   621.
    ## # ℹ 12 more rows
…
